\begin{thebibliography}{1}

\bibitem{salesforce2017tech}
R.~Miller(salesforce.com), ``{Infographic} how tech savvy are small businesses
  ?,'' 2017.

\bibitem{companiesrfid}
S.~Smiley(https://blog.atlasrfidstore.com/), ``4 companies using rfid for
  supply chain management,'' 2015.

\bibitem{rpcdataset}
X.-S. Wei, Q.~Cui, L.~Yang, P.~Wang, and L.~Liu, ``Rpc: A large-scale retail
  product checkout dataset,'' 2019.

\end{thebibliography}
