\relax 
\citation{salesforce2017tech}
\citation{companiesrfid}
\citation{rpcdataset}
\@writefile{toc}{\contentsline {section}{\numberline {I}INTRODUCTION}{1}}
\@writefile{toc}{\contentsline {section}{\numberline {II}OBJECTIVE}{1}}
\@writefile{toc}{\contentsline {section}{\numberline {III}METHODS}{1}}
\@writefile{toc}{\contentsline {subsection}{\numberline {III-A}Search Strategy}{1}}
\@writefile{toc}{\contentsline {subsection}{\numberline {III-B}Study Selection}{1}}
\@writefile{toc}{\contentsline {section}{\numberline {IV}PROBLEM DESCRIPTION}{1}}
\@writefile{toc}{\contentsline {subsection}{\numberline {IV-A}Barcodes}{2}}
\@writefile{toc}{\contentsline {subsection}{\numberline {IV-B}Abbreviations and Acronyms}{2}}
\@writefile{toc}{\contentsline {subsection}{\numberline {IV-C}Units}{2}}
\@writefile{toc}{\contentsline {subsection}{\numberline {IV-D}Equations}{2}}
\@writefile{toc}{\contentsline {subsection}{\numberline {IV-E}Some Common Mistakes}{2}}
\@writefile{toc}{\contentsline {section}{\numberline {V}USING THE TEMPLATE}{2}}
\bibstyle{ieeetr}
\bibdata{references}
\bibcite{salesforce2017tech}{1}
\bibcite{companiesrfid}{2}
\bibcite{rpcdataset}{3}
\@writefile{toc}{\contentsline {subsection}{\numberline {V-A}Headings, etc}{3}}
\@writefile{toc}{\contentsline {subsection}{\numberline {V-B}Figures and Tables}{3}}
\@writefile{lot}{\contentsline {table}{\numberline {I}{\ignorespaces An Example of a Table}}{3}}
\newlabel{table_example}{{I}{3}}
\@writefile{lof}{\contentsline {figure}{\numberline {1}{\ignorespaces Inductance of oscillation winding on amorphous magnetic core versus DC bias magnetic field}}{3}}
\newlabel{figurelabel}{{1}{3}}
\@writefile{toc}{\contentsline {section}{\numberline {VI}CONCLUSIONS}{3}}
\@writefile{toc}{\contentsline {section}{References}{3}}
